…
## Handling NAs in the start- and end-station names

Since all classic_bikes must start and end at a docking station, we
shall remove all classic_bike trips that have NAs for either start or
end station names.

``` r
trips_clean_na <- trips_clean %>% filter(!(rideable_type == "classic_bike" & (is.na(start_station_name) | is.na(end_station_name))))
trips_clean_na
```

    ## # A tibble: 5,585,729 x 13
    ##    ride_id          rideable_type started_at          ended_at           
    ##    <chr>            <chr>         <dttm>              <dttm>             
    ##  1 E19E6F1B8D4C42ED electric_bike 2021-01-23 16:14:19 2021-01-23 16:24:44
    ##  2 DC88F20C2C55F27F electric_bike 2021-01-27 18:43:08 2021-01-27 18:47:12
    ##  3 EC45C94683FE3F27 electric_bike 2021-01-21 22:35:54 2021-01-21 22:37:14
    ##  4 4FA453A75AE377DB electric_bike 2021-01-07 13:31:13 2021-01-07 13:42:55
    ##  5 BE5E8EB4E7263A0B electric_bike 2021-01-23 02:24:02 2021-01-23 02:24:45
    ##  6 5D8969F88C773979 electric_bike 2021-01-09 14:24:07 2021-01-09 15:17:54
    ##  7 09275CC10F854E9E electric_bike 2021-01-04 05:05:04 2021-01-04 05:10:39
    ##  8 DF7A32A217AEFB14 electric_bike 2021-01-14 15:07:00 2021-01-14 15:13:40
    ##  9 C2EFC62379EB716C electric_bike 2021-01-09 09:57:55 2021-01-09 10:00:26
    ## 10 B9F73448DFBE0D45 classic_bike  2021-01-24 19:15:38 2021-01-24 19:22:51
    ## # ... with 5,585,719 more rows, and 9 more variables: start_station_name <chr>,
    ## #   start_station_id <chr>, end_station_name <chr>, end_station_id <chr>,
    ## #   start_lat <dbl>, start_lng <dbl>, end_lat <dbl>, end_lng <dbl>,
    ## #   member_casual <chr>
…
Electric bikes were used more compared to classic bikes in November and
December, whereas classic bikes usage outnumbered that of electric bikes
throughout the rest of the year.

## Ride count by month, by customer type

``` r
season_df %>% 
  count(month, member_casual)
```

    ## # A tibble: 24 x 3
    ##    month member_casual      n
    ##    <ord> <chr>          <int>
    ##  1 Jan   casual         17787
    ##  2 Jan   member         77313
    ##  3 Feb   casual          9841
    ##  4 Feb   member         38399
    ##  5 Mar   casual         82879
    ##  6 Mar   member        142149
    ##  7 Apr   casual        134557
    ##  8 Apr   member        197246
    ##  9 May   casual        252625
    ## 10 May   member        269579
    ## # ... with 14 more rows
…
For week days(Mon-Fri), we see 3 peaks, one at 8 AM, the second at noon,
and the third at 5 PM for the members. For casual rides, we see a
gradual increase in ride counts from 8AM to 5PM, with 5PM having the
highest ride count.

## Top routes

``` r
season_df %>% 
  group_by(route) %>% 
  summarise(total_rides = n()) %>% 
  arrange(desc(total_rides))
```

    ## # A tibble: 153,026 x 2
    ##    route                                                total_rides
    ##    <chr>                                                      <int>
    ##  1 <NA>                                                      971559
    ##  2 Streeter Dr & Grand Ave--Streeter Dr & Grand Ave           11907
    ##  3 Michigan Ave & Oak St--Michigan Ave & Oak St                6094
    ##  4 Millennium Park--Millennium Park                            5951
    ##  5 Ellis Ave & 60th St--Ellis Ave & 55th St                    5098
    ##  6 Lake Shore Dr & Monroe St--Lake Shore Dr & Monroe St        4810
    ##  7 Ellis Ave & 55th St--Ellis Ave & 60th St                    4613
    ##  8 Ellis Ave & 60th St--University Ave & 57th St               3685
    ##  9 Streeter Dr & Grand Ave--Millennium Park                    3607
    ## 10 Theater on the Lake--Theater on the Lake                    3565
    ## # ... with 153,016 more rows
…
